module gitlab.com/freakytoad1/prtgo

go 1.18

require (
	github.com/go-playground/validator v9.31.0+incompatible
	github.com/jarcoal/httpmock v1.1.0
)

require (
	github.com/davecgh/go-spew v1.1.1 // indirect
	github.com/go-playground/locales v0.14.0 // indirect
	github.com/go-playground/universal-translator v0.18.0 // indirect
	github.com/leodido/go-urn v1.2.1 // indirect
	github.com/stretchr/testify v1.7.0 // indirect
	gopkg.in/go-playground/assert.v1 v1.2.1 // indirect
	gopkg.in/yaml.v3 v3.0.0-20210107192922-496545a6307b // indirect
)
